构造感知机模型 – Bowen Qin
…
生成线性可分的数据

set.seed(123)
n = 2000
df <- tibble(
  id = 1:n,
  x1 = rnorm(n),
  x2 = rnorm(n),
  y = if_else(2*x1 + 3*x2 >= 0, "A", "B")
) %>% 
  arrange(id)
df

# A tibble: 2,000 × 4
      id      x1     x2 y    
   <int>   <dbl>  <dbl> <chr>
 1     1 -0.560  -0.512 B    
 2     2 -0.230   0.237 A    
 3     3  1.56   -0.542 A    
 4     4  0.0705  1.22  A    
 5     5  0.129   0.174 A    
 6     6  1.72   -0.615 A    
 7     7  0.461  -1.81  B    
 8     8 -1.27   -0.644 B    
 9     9 -0.687   2.05  A    
10    10 -0.446  -0.561 B    
# ℹ 1,990 more rows
…
